Query datasets — search_datasets • rOpenSci: rmangal
…
Note that for lists with more than one element, only the first element is used, the others are ignored.
Examples covering custom queries are provided below.

    References

    Metadata available at https://mangal-wg.github.io/mangal-api/#datasets

    Examples

# \donttest{
# Return all datasets (takes time)
all_datasets <- search_datasets("", verbose = FALSE)
all_datasets
#> # A tibble: 172 x 10
#>       id name  description public created_at updated_at ref_id user_id
#>    <int> <chr> <chr>       <lgl>  <chr>      <chr>       <int>   <int>
#>  1     2 howk… Insect act… TRUE   2019-02-2… 2019-02-2…      2       2
#>  2     7 lund… Pollnator … TRUE   2019-02-2… 2019-02-2…      7       2
#>  3     9 elbe… Flower-vis… TRUE   2019-02-2… 2019-02-2…      9       2
#>  4    14 john… Predation … TRUE   2019-02-2… 2019-02-2…     14       3
#>  5    15 have… Pelagic co… TRUE   2019-02-2… 2019-02-2…     15       3
#>  6    16 kemp… Food web f… TRUE   2019-02-2… 2019-02-2…     16       3
#>  7    17 brad… Food web o… TRUE   2019-02-2… 2019-02-2…     17       3
#>  8    18 patt… Food web o… TRUE   2019-02-2… 2019-02-2…     18       3
#>  9    19 clar… Food web o… TRUE   2019-02-2… 2019-02-2…     19       3
#> 10    20 van_… Food web o… TRUE   2019-02-2… 2019-02-2…     20       3
#> # … with 162 more rows, and 2 more variables: references <list>,
#> #   networks <list>
…
