Get started with rmangal • rOpenSci: rmangal
…
Network manipulation and visualization with tidygraph and ggraph

The package tidygraph treats networks as two tidy tables (one for the edges and one for the nodes) that can be modified using the grammar of data manipulation developed in the tidyverse. Moreover, tidygraph wraps over most of the igraph functions so that the user can call a vast variety of algorithms to properly analysis networks. Fortunately, objects of class mgNetwork can readily be converted into tbl_graph objects which allows the user to benefit from all the tools included in tidygraph:

library(tidygraph)
# NB the line below would not work with a mgNetworksCollection (use lapply)
tg_lagoons <-  as_tbl_graph(mg_lagoons[[1]]) %>%
  mutate(centrality_dg = centrality_degree(mode = 'in'))
tg_lagoons %E>% as_tibble
#> # A tibble: 189 x 19
#>     from    to interaction_id date  direction type  method attr_id value public
#>    <int> <int>          <int> <chr> <chr>     <chr> <lgl>    <int> <dbl> <lgl> 
#>  1     6    11          48346 2003… directed  pred… NA          12 0.089 TRUE  
#>  2     6    12          48347 2003… directed  pred… NA          12 0.029 TRUE  
#>  3     9     9          48376 2003… directed  pred… NA          12 0.026 TRUE  
#>  4     9    11          48377 2003… directed  pred… NA          12 0.025 TRUE  
#>  5     9    12          48378 2003… directed  pred… NA          12 0.003 TRUE  
#>  6     9    15          48379 2003… directed  pred… NA          12 0.009 TRUE  
#>  7     9    16          48380 2003… directed  pred… NA          12 0.009 TRUE  
#>  8     9    17          48381 2003… directed  pred… NA          12 0.016 TRUE  
#>  9     9    18          48382 2003… directed  pred… NA          12 0.284 TRUE  
#> 10     9    19          48383 2003… directed  pred… NA          12 0.231 TRUE  
#> # … with 179 more rows, and 9 more variables: network_id <int>,
#> #   created_at <chr>, updated_at <chr>, attribute.id <int>,
#> #   attribute.name <chr>, attribute.description <chr>, attribute.unit <lgl>,
#> #   attribute.created_at <chr>, attribute.updated_at <chr>
tg_lagoons %N>% as_tibble %>%
  select(original_name, taxonomy.tsn, centrality_dg)
#> # A tibble: 26 x 3
#>    original_name  taxonomy.tsn centrality_dg
#>    <chr>                 <int>         <dbl>
#>  1 Scianids             169237             1
#>  2 Elopids               28630             0
#>  3 Lutjanids            168845             1
#>  4 Carangids            168584             2
#>  5 Centropomids         167642             2
#>  6 Ariids                43998             1
#>  7 Haemulids            169055             4
#>  8 Pleuronectoids       172859             3
#>  9 Callinectes           13951             6
#> 10 Belonoids            165546             4
#> # … with 16 more rows
…
